…
# Gathering columns a to j
hm <- hm %>% gather(x, value, a:j)

# hm now looks like:
# # A tibble: 100 x 3
# y     x     value
# <chr> <chr> <dbl>
# 1 a     a         5
# 2 b     a         0
# 3 c     a         0
# 4 d     a         0
# 5 e     a         2
# # ... with 95 more rows
```
…
